<?xml version="1.0" encoding="UTF-8" standalone="no"?>
<!-- Created with Inkscape (http://www.inkscape.org/) -->

<svg
   xmlns:dc="http://purl.org/dc/elements/1.1/"
   xmlns:cc="http://creativecommons.org/ns#"
   xmlns:rdf="http://www.w3.org/1999/02/22-rdf-syntax-ns#"
   xmlns:svg="http://www.w3.org/2000/svg"
   xmlns="http://www.w3.org/2000/svg"
   xmlns:sodipodi="http://sodipodi.sourceforge.net/DTD/sodipodi-0.dtd"
   xmlns:inkscape="http://www.inkscape.org/namespaces/inkscape"
   width="48pt"
   height="48pt"
   viewBox="0 0 16.933334 16.933333"
   version="1.1"
   id="svg8"
   inkscape:version="0.92.1 r15371"
   sodipodi:docname="select-all.svg">
  <defs
     id="defs2" />
  <sodipodi:namedview
     id="base"
     pagecolor="#ffffff"
     bordercolor="#666666"
     borderopacity="1.0"
     inkscape:pageopacity="0.0"
     inkscape:pageshadow="2"
     inkscape:zoom="7.9195959"
     inkscape:cx="32.771258"
     inkscape:cy="32.854647"
     inkscape:document-units="mm"
     inkscape:current-layer="layer1"
     showgrid="false"
     units="pt"
     inkscape:window-width="1600"
     inkscape:window-height="871"
     inkscape:window-x="0"
     inkscape:window-y="0"
     inkscape:window-maximized="1" />
  <metadata
     id="metadata5">
    <rdf:RDF>
      <cc:Work
         rdf:about="">
        <dc:format>image/svg+xml</dc:format>
        <dc:type
           rdf:resource="http://purl.org/dc/dcmitype/StillImage" />
        <dc:title></dc:title>
      </cc:Work>
    </rdf:RDF>
  </metadata>
  <g
     inkscape:label="Capa 1"
     inkscape:groupmode="layer"
     id="layer1"
     transform="translate(0,-280.06667)">
    <rect
       style="fill:none;fill-opacity:1;stroke:#000000;stroke-width:0.99184579;stroke-linecap:square;stroke-linejoin:miter;stroke-miterlimit:0;stroke-dasharray:none;stroke-opacity:1"
       id="rect4485"
       width="13.668744"
       height="15.952032"
       x="1.6568075"
       y="280.66608"
       rx="0"
       ry="0.82962948" />
    <rect
       style="fill:#1590c0;fill-opacity:0.80392158;stroke:none;stroke-width:0.66028392;stroke-linecap:square;stroke-linejoin:miter;stroke-miterlimit:1.5;stroke-dasharray:none;stroke-opacity:0.80392158;paint-order:normal"
       id="rect4508-3-6"
       width="3.9927199"
       height="3.9044967"
       x="3.5744977"
       y="282.51953"
       ry="0"
       rx="0" />
    <rect
       style="fill:#1590c0;fill-opacity:0.80392158;stroke:none;stroke-width:0.39182499;stroke-linecap:square;stroke-linejoin:miter;stroke-miterlimit:1.5;stroke-dasharray:none;stroke-opacity:1;paint-order:normal"
       id="rect4508-3-6-56"
       width="4.2930198"
       height="1.2787739"
       x="3.4437461"
       y="293.86673"
       ry="0"
       rx="0" />
    <rect
       style="fill:#1590c0;fill-opacity:0.80392158;stroke:none;stroke-width:0.39287242;stroke-linecap:square;stroke-linejoin:miter;stroke-miterlimit:1.5;stroke-dasharray:none;stroke-opacity:1;paint-order:normal"
       id="rect4508-3-6-7-2"
       width="4.2823567"
       height="1.2888211"
       x="9.229826"
       y="293.87161"
       ry="0"
       rx="0" />
    <rect
       style="fill:#1590c0;fill-opacity:0.80392158;stroke:none;stroke-width:0.66028392;stroke-linecap:square;stroke-linejoin:miter;stroke-miterlimit:1.5;stroke-dasharray:none;stroke-opacity:0.80392158;paint-order:normal"
       id="rect4508-3-6-9"
       width="3.9927199"
       height="3.9044967"
       x="9.3625956"
       y="282.55289"
       ry="0"
       rx="0" />
    <rect
       style="fill:#1590c0;fill-opacity:0.80392158;stroke:none;stroke-width:0.66028392;stroke-linecap:square;stroke-linejoin:miter;stroke-miterlimit:1.5;stroke-dasharray:none;stroke-opacity:1;paint-order:normal"
       id="rect4508-3-6-1"
       width="3.9927199"
       height="3.9044967"
       x="3.5953982"
       y="288.2157"
       ry="0"
       rx="0" />
    <rect
       style="fill:#1590c0;fill-opacity:0.80392158;stroke:none;stroke-width:0.66028392;stroke-linecap:square;stroke-linejoin:miter;stroke-miterlimit:1.5;stroke-dasharray:none;stroke-opacity:1;paint-order:normal"
       id="rect4508-3-6-9-2"
       width="3.9927199"
       height="3.9044967"
       x="9.3834963"
       y="288.24905"
       ry="0"
       rx="0" />
  </g>
</svg>
